<svg xmlns="http://www.w3.org/2000/svg" xmlns:xlink="http://www.w3.org/1999/xlink" preserveAspectRatio="xMidYMid" width="64" height="64" viewBox="0 0 64 64">
  <defs>
    <style>
      .cls-1 {
        fill: #3e2a29;
        fill-rule: evenodd;
      }
    </style>
  </defs>
  <path d="M60.000,64.000 L4.000,64.000 C1.789,64.000 0.000,62.211 0.000,60.000 L0.000,26.000 L32.000,52.000 L64.000,25.938 L64.000,60.000 C64.000,62.211 62.211,64.000 60.000,64.000 ZM0.000,20.000 C0.000,17.789 1.938,17.062 4.000,16.000 L32.000,0.000 L60.000,16.000 C61.938,16.938 64.000,17.789 64.000,20.000 L32.000,46.000 L0.000,20.000 Z" class="cls-1"/>
</svg>
