<svg xmlns="http://www.w3.org/2000/svg" xmlns:xlink="http://www.w3.org/1999/xlink" preserveAspectRatio="xMidYMid" width="64" height="64" viewBox="0 0 64 64">
  <defs>
    <style>
      .cls-1 {
        fill: #3c2e2d;
        fill-rule: evenodd;
      }
    </style>
  </defs>
  <path d="M31.000,0.000 C17.742,0.000 7.000,10.750 7.000,24.000 C7.000,30.156 9.336,35.750 13.148,40.000 L31.000,64.000 L48.852,40.000 C52.664,35.750 55.000,30.156 55.000,24.000 C55.000,10.750 44.250,0.000 31.000,0.000 ZM31.000,32.000 C26.578,32.000 23.000,28.422 23.000,24.000 C23.000,19.586 26.578,16.000 31.000,16.000 C35.414,16.000 39.000,19.586 39.000,24.000 C39.000,28.422 35.414,32.000 31.000,32.000 Z" class="cls-1"/>
</svg>
